Updated US State Facts and Figures • usa
…
This package contains new versions of these objects.

setdiff(usa::state.abb, datasets::state.abb)
#> [1] "DC" "PR"
unique(usa::state.region)
#> [1] South     West      Northeast Midwest   <NA>     
#> Levels: Northeast Midwest South West
show(usa::territory.abb)
#> [1] "AS" "GU" "MP" "UM" "VI"

The package also contains two tibbles identifying the states and and providing various updated facts and figures.

usa::states
#> # A tibble: 52 x 8
#>    name              abb   fips  region    division            area   lat   long
#>    <chr>             <chr> <chr> <fct>     <fct>              <dbl> <dbl>  <dbl>
#>  1 Alabama           AL    01    South     East South Cent…  5.06e4  32.7  -86.8
#>  2 Alaska            AK    02    West      Pacific           5.71e5  63.4 -153. 
#>  3 Arizona           AZ    04    West      Mountain          1.14e5  34.3 -112. 
#>  4 Arkansas          AR    05    South     West South Cent…  5.20e4  34.9  -92.4
#>  5 California        CA    06    West      Pacific           1.56e5  37.2 -120. 
#>  6 Colorado          CO    08    West      Mountain          1.04e5  39.0 -106. 
#>  7 Connecticut       CT    09    Northeast New England       4.84e3  41.6  -72.7
#>  8 Delaware          DE    10    South     South Atlantic    1.95e3  39.0  -75.5
#>  9 District of Colu… DC    11    South     South Atlantic    6.11e1  38.9  -77.0
#> 10 Florida           FL    12    South     South Atlantic    5.36e4  28.5  -82.4
#> # … with 42 more rows
usa::facts
#> # A tibble: 52 x 9
#>    name          population admission  income life_exp murder  high  bach   heat
#>    <chr>              <dbl> <date>      <dbl>    <dbl>  <dbl> <dbl> <dbl>  <dbl>
#>  1 Alabama          4887871 1819-12-14  49861     75.3    7.8 0.866 0.234  65.9 
#>  2 Alaska            737438 1959-01-03  74346     78.3    6.4 0.927 0.271 -26.6 
#>  3 Arizona          7171646 1912-02-14  59246     79.7    5.1 0.871 0.271  73.6 
#>  4 Arkansas         3013825 1836-06-15  47062     75.9    7.2 0.873 0.214  62.4 
#>  5 California      39557045 1850-09-09  75277     81.5    4.4 0.845 0.314  38.1 
#>  6 Colorado         5695564 1876-08-01  71953     80.3    3.7 0.913 0.384   6.24
#>  7 Connecticut      3572665 1788-01-09  76348     81      2.3 0.908 0.368  20.4 
#>  8 Delaware          967171 1787-12-07  64805     78.6    5   0.895 0.288  40.5 
#>  9 District of …     702455 1790-07-16  85203     78.5   22.8 0.920 0.557  50.7 
#> 10 Florida         21299325 1845-03-03  55462     80      5.2 0.881 0.282 115.  
#> # … with 42 more rows
…
ZIP codes and counties are also included. ZIP codes are from the archived zipcodes package.

usa::zipcodes
#> # A tibble: 44,336 x 5
#>    zip   city       state   lat  long
#>    <chr> <chr>      <chr> <dbl> <dbl>
#>  1 00210 Portsmouth NH     43.0 -71.0
#>  2 00211 Portsmouth NH     43.0 -71.0
#>  3 00212 Portsmouth NH     43.0 -71.0
#>  4 00213 Portsmouth NH     43.0 -71.0
#>  5 00214 Portsmouth NH     43.0 -71.0
#>  6 00215 Portsmouth NH     43.0 -71.0
#>  7 00501 Holtsville NY     40.9 -72.6
#>  8 00544 Holtsville NY     40.9 -72.6
#>  9 00601 Adjuntas   PR     18.2 -66.7
#> 10 00602 Aguada     PR     18.4 -67.2
#> # … with 44,326 more rows
usa::counties
#> # A tibble: 3,232 x 3
#>    fips  name     state
#>    <chr> <chr>    <chr>
#>  1 01001 Autauga  AL   
#>  2 01003 Baldwin  AL   
#>  3 01005 Barbour  AL   
#>  4 01007 Bibb     AL   
#>  5 01009 Blount   AL   
#>  6 01011 Bullock  AL   
#>  7 01013 Butler   AL   
#>  8 01015 Calhoun  AL   
#>  9 01017 Chambers AL   
#> 10 01019 Cherokee AL   
#> # … with 3,222 more rows

The people tibble contains 20,000 synthetic survey respondents created by the Pew Research Center. Statistically accurate first and last names have been added to improve authenticity.

dplyr::select(usa::people, 1:8)
#> # A tibble: 20,000 x 8
#>       id fname   lname    gender   age race     edu          div               
#>    <int> <chr>   <chr>    <fct>  <dbl> <fct>    <fct>        <fct>             
#>  1     1 Marquez Minnick  M         25 White    Some college Mountain          
#>  2     2 Sandra  Medina   F         70 Hispanic HS Grad      West South Central
#>  3     3 John    Samples  M         85 White    Less than HS Middle Atlantic   
#>  4     4 David   Mcneely  M         59 White    HS Grad      Mountain          
#>  5     5 Emily   Tsang    F         19 Asian    Some college Pacific           
#>  6     6 Rodney  Matheson M         67 White    HS Grad      West North Central
#>  7     7 Joseph  Ammons   M         70 White    HS Grad      West North Central
#>  8     8 Ryan    Allen    M         26 Black    Less than HS Pacific           
#>  9     9 Lane    Burchett M         50 White    Some college East North Central
#> 10    10 William Slater   M         73 White    Some college South Atlantic    
#> # … with 19,990 more rows
…
