…
## New Data

This package contains new versions of these objects\!

``` r
library(usa)
states %>%
  inner_join(abbs) %>%
  inner_join(fips) %>%
  left_join(regions) %>%
  left_join(divisions) %>%
  inner_join(ansi) %>%
  select(-ends_with("id"))
#> # A tibble: 52 x 6
#>    fips  name                 abb   region    division           ansi    
#>    <chr> <chr>                <chr> <fct>     <fct>              <chr>   
#>  1 01    Alabama              AL    South     East South Central 01779775
#>  2 02    Alaska               AK    West      Pacific            01785533
#>  3 04    Arizona              AZ    West      Mountain           01779777
#>  4 05    Arkansas             AR    South     West South Central 00068085
#>  5 06    California           CA    West      Pacific            01779778
#>  6 08    Colorado             CO    West      Mountain           01779779
#>  7 09    Connecticut          CT    Northeast New England        01779780
#>  8 10    Delaware             DE    South     South Atlantic     01779781
#>  9 11    District of Columbia DC    South     South Atlantic     01702382
#> 10 12    Florida              FL    South     South Atlantic     00294478
#> # … with 42 more rows
```
…
